{
    "calendar_slice": {
        "calendars": {
            "https://dav.example.com/1234/": {
                "id": "https://dav.example.com/1234/",
                "name": "Test Calendar",
                "enabled": true,
                "default": false,
                "color": "Black",
                "events": {
                    "https://dav.example.com/1234/1111.ics": {
                        "id": "https://dav.example.com/1234/1111.ics",
                        "calendar_url": "https://dav.example.com/1234/",
                        "item_url": "https://dav.example.com/1234/1111.ics",
                        "name": "Minimal Event",
                        "location": null,
                        "start": {
                            "inner": [
                                2021,
                                153,
                                0,
                                0,
                                0,
                                0,
                                0,
                                0,
                                0
                            ]
                        },
                        "end": {
                            "inner": [
                                2021,
                                154,
                                0,
                                0,
                                0,
                                0,
                                0,
                                0,
                                0
                            ]
                        },
                        "full_day": true,
                        "notes": null,
                        "repeat": null,
                        "sync_status": {
                            "Synced": "0000000-00-00-0000000000000"
                        }
                    },
                    "https://dav.example.com/1234/1112.ics": {
                        "id": "https://dav.example.com/1234/1111.ics",
                        "calendar_url": "https://dav.example.com/1234/",
                        "item_url": "https://dav.example.com/1234/1111.ics",
                        "name": "Maximal Event",
                        "location": "At home",
                        "start": {
                            "inner": [
                                2020,
                                350,
                                16,
                                30,
                                0,
                                0,
                                0,
                                0,
                                0
                            ]
                        },
                        "end": {
                            "inner": [
                                2020,
                                350,
                                16,
                                30,
                                0,
                                0,
                                0,
                                0,
                                0
                            ]
                        },
                        "full_day": false,
                        "notes": "Some notes",
                        "repeat": [
                            [
                                "FREQ",
                                "DAIY"
                            ],
                            [
                                "INTERVAL",
                                "1"
                            ],
                            [
                                "COUNT",
                                "4"
                            ]
                        ],
                        "sync_status": {
                            "Synced": "0000000-00-00-0000000000000"
                        }
                    },
                    "https://dav.example.com/1234/1113.ics": {
                        "id": "https://dav.example.com/1234/1113.ics",
                        "calendar_url": "https://dav.example.com/1234/",
                        "item_url": "https://dav.example.com/1234/1113.ics",
                        "name": "Minimal Event Missing fields",
                        "start": {
                            "inner": [
                                2021,
                                153,
                                0,
                                0,
                                0,
                                0,
                                0,
                                0,
                                0
                            ]
                        },
                        "end": {
                            "inner": [
                                2021,
                                154,
                                0,
                                0,
                                0,
                                0,
                                0,
                                0,
                                0
                            ]
                        },
                        "full_day": false,
                        "sync_status": {
                            "Synced": "0000000-00-00-0000000000000"
                        }
                    }
                }
            }
        },
        "last_sync": {
            "inner": [
                2022,
                84,
                20,
                47,
                13,
                283902063,
                2,
                0,
                0
            ]
        }
    },
    "settings": {
        "timezone": "Europe/Berlin",
        "dateformat": {
            "name": "24h DD.MM.YYYY",
            "datetime": "DateBottomUpAndTime24",
            "date": "DateBottomUp",
            "time": "Time24"
        }
    }
}